[
  {
    "localidade": "33",
    "sexo": "f",
    "res": [
      {
        "nome": "MARIA",
        "frequencia": 749527,
        "ranking": 1
      },
      {
        "nome": "ANA",
        "frequencia": 296117,
        "ranking": 2
      }
    ]
  }
]
